Project - FuelWatch
…
Code

table_brand

# A tibble: 44 × 3
   CLUSTER BRAND             n
   <fct>   <chr>         <int>
 1 1       7-Eleven         12
 2 1       Ampol            36
 3 1       Astron            2
 4 1       Atlas             9
 5 1       BP               55
 6 1       Better Choice     6
 7 1       Burk              8
 8 1       CGL Fuel          1
 9 1       Caltex           17
10 1       EG Ampol          6
# ℹ 34 more rows
…
